6306: Case Study 1
…
Which state has the maximum alcoholic (ABV) beer? Which state has the most bitter (IBU) beer?

# Highest ABV
beer_brew %>% 
  arrange(desc(abv)) %>% 
  filter(row_number() == 1)

## # A tibble: 90 x 10
## # Groups:   style [90]
##    beer_name beer_id   abv   ibu brewery_id style ounces brewery_name city 
##    <chr>       <dbl> <dbl> <dbl>      <dbl> <chr>  <dbl> <chr>        <chr>
##  1 Lee Hill    2565 0.128    24         52 Quad   19.2 Upslope Bre Boul
##  2 London B    2685 0.125    80          2 Engl   16   Against the Loui
##  3 Csar         2621 0.12     90         18 Russ   16   Tin Man Bre Evan
##  4 Lee Hill    2564 0.104    52         52 Rye    19.2 Upslope Bre Boul
##  5 4Beans       2574 0.1      52         47 Balt   12   Sixpoint Cr Broo
##  6 Lower De    1036 0.099    92        369 Amer    8.4 21st Amendm San 
##  7 Very Nod      29 0.099    31        531 Schw   16   Buckbean Br Reno 
##  8 Hopkick     2471 0.099   115         25 Amer   12   Burn 'Em Br Mich
##  9 Imperial    2068 0.099    43        231 Pump   16   Cape Ann Br Glou
## 10 Epitome      2094 0.099   100        223 Amer   16   Carton Brew Atla
## #  with 80 more rows, and 1 more variable: state <chr>

#Colorado

# Highest IBU
beer_brew %>% 
  arrange(desc(ibu)) %>% 
  filter(row_number() == 1)

## # A tibble: 90 x 10
## # Groups:   style [90]
##    beer_name beer_id   abv   ibu brewery_id style ounces brewery_name city 
##    <chr>       <dbl> <dbl> <dbl>      <dbl> <chr>  <dbl> <chr>        <chr>
##  1 Bitter B     980 0.082   138        375 Amer     12 Astoria Bre Asto
##  2 Troopers    1676 0.059   135        345 Amer     12 Wolf Hills  Abin
##  3 Blazing     1492 0.065   115        210 Amer     16 Modern Time San 
##  4 Epitome      2094 0.099   100        223 Amer     16 Carton Brew Atla
##  5 Old Devi    1160 0.099   100        310 Amer     12 Sockeye Bre Boise
##  6 Hop A Po     672 0.09     99        366 Rye      16 Great River Dave
##  7 Ten Fidy       8 0.099    98        167 Russ     12 Oskar Blues Long
##  8 Farmer W    1549 0.07     94        108 Engl     16 Bonfire Bre Eagle
##  9 Oasis         912 0.072    93         46 Extr     16 Tallgrass B Manh
## 10 Winterfe     995 0.084    90        310 Amer     16 Sockeye Bre Boise
## #  with 80 more rows, and 1 more variable: state <chr>
…
